<?xml version="1.0" encoding="utf-8"?>
<!-- Generator: Adobe Illustrator 22.1.0, SVG Export Plug-In . SVG Version: 6.00 Build 0)  -->
<svg version="1.1" id="Layer_1" xmlns="http://www.w3.org/2000/svg" xmlns:xlink="http://www.w3.org/1999/xlink" x="0px" y="0px"
	 viewBox="0 0 64.6 54.5" style="enable-background:new 0 0 64.6 54.5;" xml:space="preserve">
<style type="text/css">
	.st0{fill:none;stroke:#FF8C27;stroke-width:1.1945;stroke-linejoin:round;stroke-miterlimit:10;}
	.st1{fill:none;stroke:#FF8C27;stroke-width:1.1945;stroke-linecap:round;stroke-linejoin:round;stroke-miterlimit:10;}
</style>
<g>
	<circle class="st0" cx="42.7" cy="37.6" r="11.3"/>
	<line class="st1" x1="38" y1="37.6" x2="47.4" y2="37.6"/>
	<line class="st1" x1="42.7" y1="42.3" x2="42.7" y2="32.9"/>
	<g>
		<g>
			<ellipse class="st1" cx="28.5" cy="13.1" rx="17.9" ry="7.5"/>
			<path class="st1" d="M28.5,28.2c-9.9,0-17.9-3.4-17.9-7.5"/>
			<path class="st1" d="M25.7,36.6c-8.6-0.6-15.1-3.7-15.1-7.5"/>
			<path class="st1" d="M26.6,45.1c-9-0.4-16-3.6-16-7.5V13.1"/>
		</g>
		<line class="st1" x1="46.5" y1="13.1" x2="46.5" y2="21.6"/>
	</g>
</g>
</svg>
